[gd_scene load_steps=6 format=3 uid="uid://b4dojc2v6ofst"]

[ext_resource type="TileSet" uid="uid://515xwoc1qeca" path="res://res/tileset/default.tres" id="1_yfrvm"]
[ext_resource type="PackedScene" uid="uid://bh2f5blal0a7m" path="res://src/scene/generic/object/obstacle.tscn" id="2_jt4ad"]
[ext_resource type="PackedScene" uid="uid://6no1s2tu0kys" path="res://src/scene/generic/npc/mosquito.tscn" id="4_theq3"]

[sub_resource type="RectangleShape2D" id="RectangleShape2D_ybcpt"]
size = Vector2(336, 40)

[sub_resource type="RectangleShape2D" id="RectangleShape2D_foo0r"]
size = Vector2(32, 240)

[node name="board" type="Node2D"]

[node name="background" type="Node2D" parent="."]
position = Vector2(-16, 0)

[node name="tilemap" type="TileMap" parent="background"]
tile_set = ExtResource("1_yfrvm")
format = 2
layer_0/name = "ground"
layer_0/tile_data = PackedInt32Array(3, 196608, 1, 2, 262144, 1, 1, 327680, 1, 0, 0, 1, 65536, 196608, 3, 131072, 262144, 3, 131073, 131072, 0, 131074, 393216, 0, 65538, 262144, 0, 65539, 327680, 0, 65537, 0, 0, 65540, 524288, 0, 5, 196608, 1, 4, 262144, 1, 6, 524288, 1, 7, 589824, 1, 8, 262144, 1, 65544, 393216, 0, 131080, 196608, 0, 131079, 524288, 0, 65542, 393216, 0, 65541, 458752, 0, 65543, 0, 0, 131078, 458752, 0, 131077, 262144, 0, 131076, 196608, 0, 131075, 0, 0, 196610, 327680, 0, 196609, 65536, 0, 9, 196608, 1, 65545, 393216, 0, 131081, 131072, 0, 196617, 65536, 0, 10, 65536, 1, 65546, 131072, 4, 131082, 262144, 4, 262144, 131072, 3, 327680, 196608, 3, 327681, 524288, 0, 262145, 0, 0, 262146, 524288, 0, 262147, 458752, 0, 262148, 196608, 0, 196612, 196608, 0, 196613, 327680, 0, 196614, 196608, 0, 196615, 0, 0, 196616, 393216, 0, 262154, 327680, 4, 262153, 65536, 0, 262152, 327680, 0, 262151, 262144, 0, 262150, 262144, 0, 262149, 262144, 0, 196611, 0, 0, 327682, 131072, 0, 327683, 65536, 0, 327684, 65536, 0, 327685, 0, 0, 327686, 262144, 0, 327687, 65536, 0, 327688, 196608, 0, 327689, 196608, 0, 327690, 131072, 4, 393226, 65536, 2, 393225, 327680, 2, 393224, 196608, 2, 393223, 131072, 2, 393222, 655360, 2, 393220, 327680, 2, 393219, 589824, 2, 393218, 524288, 2, 393217, 327680, 2, 393216, 0, 2, 393221, 196608, 2, 196608, 131072, 3, 196618, 131072, 4)
layer_1/name = "stuff"
layer_1/enabled = true
layer_1/modulate = Color(1, 1, 1, 1)
layer_1/y_sort_enabled = false
layer_1/y_sort_origin = 0
layer_1/z_index = 0
layer_1/tile_data = PackedInt32Array(65537, 0, 11, 327681, 131072, 12, 65545, 327680, 11, 327689, 65536, 12, 65538, 524288, 11, 65539, 589824, 11, 65540, 655360, 11, 65542, 655360, 11, 65543, 393216, 11, 65544, 458752, 11, 327682, 655360, 12, 327683, 655360, 12, 327684, 589824, 12, 327686, 655360, 12, 327687, 655360, 12, 327688, 589824, 12, 131081, 983040, 11, 262153, 786432, 11, 131073, 917504, 12, 262145, 720896, 12, 65541, 589824, 11, 196617, 720896, 11, 327685, 589824, 12, 196609, 917504, 12, 196608, 983040, 3, 393221, 983040, 2, 196618, 983040, 4, 5, 983040, 1)
layer_2/name = "object"
layer_2/enabled = true
layer_2/modulate = Color(1, 1, 1, 1)
layer_2/y_sort_enabled = false
layer_2/y_sort_origin = 0
layer_2/z_index = 0
layer_2/tile_data = PackedInt32Array(65537, 65537, 2, 65538, 131073, 3, 131073, 327681, 3, 327681, 196609, 2, 262145, 262145, 2, 327682, 65537, 2, 327683, 131073, 2, 262147, 393217, 3, 262148, 196609, 3, 327684, 131073, 3, 327685, 327681, 3, 196609, 327681, 3, 1, 589824, 7, 2, 720896, 7, 9, 720896, 7, 8, 589824, 7, 65539, 262145, 4, 131076, 327681, 4, 196610, 393217, 4, 327686, 262145, 4, 262149, 196609, 4, 196615, 393217, 4, 196611, 458753, 4, 196612, 262145, 4)

[node name="walls" type="Area2D" parent="."]
visible = false
collision_layer = 1024
collision_mask = 65536

[node name="wall_up" type="CollisionShape2D" parent="walls"]
position = Vector2(168, 14)
shape = SubResource("RectangleShape2D_ybcpt")

[node name="wall_down" type="CollisionShape2D" parent="walls"]
position = Vector2(160, 220)
shape = SubResource("RectangleShape2D_ybcpt")

[node name="wall_left" type="CollisionShape2D" parent="walls"]
position = Vector2(-4, 112)
shape = SubResource("RectangleShape2D_foo0r")

[node name="wall_right" type="CollisionShape2D" parent="walls"]
position = Vector2(320, 120)
shape = SubResource("RectangleShape2D_foo0r")

[node name="y_sort" type="Node2D" parent="."]
y_sort_enabled = true

[node name="obstacle4" parent="y_sort" instance=ExtResource("2_jt4ad")]
position = Vector2(64, 144)
type = "spike"

[node name="obstacle8" parent="y_sort" instance=ExtResource("2_jt4ad")]
position = Vector2(160, 112)
type = "spike"
index = 2

[node name="obstacle5" parent="y_sort" instance=ExtResource("2_jt4ad")]
position = Vector2(64, 80)
type = "spike"

[node name="obstacle6" parent="y_sort" instance=ExtResource("2_jt4ad")]
position = Vector2(256, 80)
type = "spike"

[node name="obstacle7" parent="y_sort" instance=ExtResource("2_jt4ad")]
position = Vector2(256, 144)
type = "spike"

[node name="mosquito" parent="y_sort" instance=ExtResource("4_theq3")]
position = Vector2(288, 48)

[node name="mosquito3" parent="y_sort" instance=ExtResource("4_theq3")]
position = Vector2(32, 48)

[node name="mosquito4" parent="y_sort" instance=ExtResource("4_theq3")]
position = Vector2(288, 176)

[node name="mosquito2" parent="y_sort" instance=ExtResource("4_theq3")]
position = Vector2(32, 176)
