[gd_scene load_steps=5 format=3 uid="uid://cwwbdckaln0ri"]

[ext_resource type="TileSet" uid="uid://515xwoc1qeca" path="res://res/tileset/default.tres" id="1_43mxk"]
[ext_resource type="PackedScene" uid="uid://c6r1squlf3m17" path="res://src/scene/backdrop.tscn" id="2_n676h"]

[sub_resource type="RectangleShape2D" id="RectangleShape2D_ybcpt"]
size = Vector2(336, 40)

[sub_resource type="RectangleShape2D" id="RectangleShape2D_foo0r"]
size = Vector2(32, 240)

[node name="board" type="Node2D"]

[node name="background" type="Node2D" parent="."]
position = Vector2(-16, 0)

[node name="tilemap" type="TileMap" parent="background"]
tile_set = ExtResource("1_43mxk")
format = 2
layer_0/name = "ground"
layer_0/tile_data = PackedInt32Array(3, 655360, 1, 2, 589824, 1, 1, 196608, 1, 0, 0, 1, 65536, 196608, 3, 131072, 131072, 3, 5, 327680, 1, 4, 327680, 1, 6, 131072, 1, 7, 524288, 1, 8, 131072, 1, 196610, 196608, 0, 196609, 131072, 0, 9, 262144, 1, 196617, 196608, 0, 10, 65536, 1, 65546, 131072, 4, 262144, 327680, 3, 327680, 131072, 3, 327681, 393216, 0, 262145, 262144, 0, 262146, 262144, 0, 262147, 131072, 0, 262148, 458752, 0, 196612, 393216, 0, 196613, 131072, 0, 196614, 393216, 0, 196615, 524288, 0, 196616, 196608, 0, 262154, 131072, 4, 262153, 524288, 0, 262152, 393216, 0, 262151, 327680, 0, 262150, 196608, 0, 262149, 393216, 0, 196611, 524288, 0, 327682, 131072, 0, 327683, 393216, 0, 327684, 262144, 0, 327685, 458752, 0, 327686, 327680, 0, 327687, 458752, 0, 327688, 262144, 0, 327689, 458752, 0, 327690, 262144, 4, 393226, 65536, 2, 393225, 196608, 2, 393224, 196608, 2, 393223, 655360, 2, 393222, 196608, 2, 393220, 524288, 2, 393219, 327680, 2, 393218, 196608, 2, 393217, 131072, 2, 393216, 0, 2, 393221, 589824, 2, 196608, 131072, 3, 196618, 262144, 4, 65537, 262144, 0, 131073, 458752, 0, 131074, 65536, 0, 65538, 524288, 0, 65539, 65536, 0, 65540, 458752, 0, 65541, 327680, 0, 65542, 262144, 0, 65543, 131072, 0, 65544, 458752, 0, 65545, 458752, 0, 131081, 327680, 0, 131080, 393216, 0, 131075, 393216, 0, 131076, 458752, 0, 131077, 196608, 0, 131078, 524288, 0, 131079, 458752, 0, 131082, 327680, 4)
layer_1/name = "stuff"
layer_1/enabled = true
layer_1/modulate = Color(1, 1, 1, 1)
layer_1/y_sort_enabled = false
layer_1/y_sort_origin = 0
layer_1/z_index = 0
layer_1/tile_data = PackedInt32Array(327681, 262144, 12, 327689, 327680, 12, 327682, 393216, 12, 327683, 393216, 12, 327684, 524288, 12, 327686, 524288, 12, 327687, 458752, 12, 327688, 589824, 12, 262153, 983040, 11, 262145, 720896, 12, 327685, 458752, 12, 196608, 983040, 3, 393221, 983040, 2, 196618, 983040, 4, 5, 983040, 1, 65537, 262144, 11, 65545, 327680, 11, 65538, 458752, 11, 65539, 458752, 11, 65540, 524288, 11, 65541, 655360, 11, 65542, 589824, 11, 65543, 589824, 11, 65544, 655360, 11, 131081, 786432, 11, 196617, 720896, 11, 131073, 851968, 12, 196609, 917504, 12, 196610, 65536, 13, 196611, 196608, 13, 131077, 65536, 13, 196613, 327680, 13, 196612, 131072, 13)
layer_2/name = "object"
layer_2/enabled = true
layer_2/modulate = Color(1, 1, 1, 1)
layer_2/y_sort_enabled = false
layer_2/y_sort_origin = 0
layer_2/z_index = 0
layer_2/tile_data = PackedInt32Array()

[node name="water" type="TileMap" parent="background"]
tile_set = ExtResource("1_43mxk")
format = 2
layer_0/name = "water"
layer_0/tile_data = PackedInt32Array(65537, 327680, 7, 131073, 327680, 8, 131074, 0, 8, 65538, 131072, 7, 65539, 65536, 7, 65540, 393216, 7, 131075, 0, 8, 131076, 393216, 8, 65542, 327680, 7, 65543, 0, 7, 65544, 0, 7, 65545, 393216, 7, 131081, 196608, 7, 131080, 131072, 10, 131079, 131072, 10, 262145, 327680, 7, 262146, 65536, 7, 262147, 65536, 7, 262148, 65536, 7, 262150, 65536, 10, 262151, 131072, 9, 262152, 131072, 10, 262153, 196608, 8, 327689, 393216, 8, 327688, 131072, 8, 327687, 65536, 8, 327686, 65536, 8, 327684, 131072, 8, 327683, 131072, 8, 327682, 65536, 8, 327681, 327680, 8, 131078, 262144, 9, 196614, 262144, 8, 196615, 131072, 10, 196616, 262144, 10, 196617, 196608, 7, 262149, 131072, 7, 327685, 131072, 8, 196613, 458752, 7)
layer_1/name = "object"
layer_1/enabled = true
layer_1/modulate = Color(1, 1, 1, 1)
layer_1/y_sort_enabled = false
layer_1/y_sort_origin = 0
layer_1/z_index = 0
layer_1/tile_data = PackedInt32Array(262151, 458752, 10, 196616, 458752, 9, 131074, 458752, 9, 262152, 524288, 9)

[node name="walls" type="Area2D" parent="."]
visible = false
collision_layer = 1024
collision_mask = 65536

[node name="wall_up" type="CollisionShape2D" parent="walls"]
position = Vector2(168, 14)
shape = SubResource("RectangleShape2D_ybcpt")

[node name="wall_down" type="CollisionShape2D" parent="walls"]
position = Vector2(160, 220)
shape = SubResource("RectangleShape2D_ybcpt")

[node name="wall_left" type="CollisionShape2D" parent="walls"]
position = Vector2(-4, 112)
shape = SubResource("RectangleShape2D_foo0r")

[node name="wall_right" type="CollisionShape2D" parent="walls"]
position = Vector2(320, 120)
shape = SubResource("RectangleShape2D_foo0r")

[node name="y_sort" type="Node2D" parent="."]
y_sort_enabled = true

[node name="backdrop" parent="y_sort" instance=ExtResource("2_n676h")]
position = Vector2(50, 112)

[node name="backdrop2" parent="y_sort" instance=ExtResource("2_n676h")]
position = Vector2(74, 105)

[node name="backdrop3" parent="y_sort" instance=ExtResource("2_n676h")]
position = Vector2(100, 122)

[node name="backdrop5" parent="y_sort" instance=ExtResource("2_n676h")]
position = Vector2(131, 108)

[node name="backdrop6" parent="y_sort" instance=ExtResource("2_n676h")]
position = Vector2(168, 98)

[node name="backdrop7" parent="y_sort" instance=ExtResource("2_n676h")]
position = Vector2(151, 72)
