[gd_scene load_steps=7 format=3 uid="uid://bgdkjnn7apvyj"]

[ext_resource type="Script" path="res://src/script/room.gd" id="1_v8lsv"]

[sub_resource type="Animation" id="Animation_84itp"]
length = 0.001
tracks/0/type = "value"
tracks/0/imported = false
tracks/0/enabled = true
tracks/0/path = NodePath("..:visible")
tracks/0/interp = 1
tracks/0/loop_wrap = true
tracks/0/keys = {
"times": PackedFloat32Array(0),
"transitions": PackedFloat32Array(1),
"update": 1,
"values": [false]
}
tracks/1/type = "value"
tracks/1/imported = false
tracks/1/enabled = true
tracks/1/path = NodePath("../ColorRect:color")
tracks/1/interp = 1
tracks/1/loop_wrap = true
tracks/1/keys = {
"times": PackedFloat32Array(0),
"transitions": PackedFloat32Array(1),
"update": 0,
"values": [Color(0, 0, 0, 1)]
}

[sub_resource type="Animation" id="Animation_jv1u8"]
resource_name = "end"
tracks/0/type = "method"
tracks/0/imported = false
tracks/0/enabled = true
tracks/0/path = NodePath("..")
tracks/0/interp = 1
tracks/0/loop_wrap = true
tracks/0/keys = {
"times": PackedFloat32Array(0.9),
"transitions": PackedFloat32Array(1),
"values": [{
"args": [],
"method": &"on_end"
}]
}
tracks/1/type = "value"
tracks/1/imported = false
tracks/1/enabled = true
tracks/1/path = NodePath("../ColorRect:color")
tracks/1/interp = 1
tracks/1/loop_wrap = true
tracks/1/keys = {
"times": PackedFloat32Array(0.5, 0.9),
"transitions": PackedFloat32Array(1, 1),
"update": 0,
"values": [Color(0, 0, 0, 0), Color(0, 0, 0, 1)]
}

[sub_resource type="Animation" id="Animation_s7vw2"]
resource_name = "start"
length = 2.0
step = 0.05
tracks/0/type = "method"
tracks/0/imported = false
tracks/0/enabled = true
tracks/0/path = NodePath("..")
tracks/0/interp = 1
tracks/0/loop_wrap = true
tracks/0/keys = {
"times": PackedFloat32Array(1.15, 1.5),
"transitions": PackedFloat32Array(1, 1),
"values": [{
"args": [],
"method": &"close_doors"
}, {
"args": [],
"method": &"set_active"
}]
}
tracks/1/type = "value"
tracks/1/imported = false
tracks/1/enabled = true
tracks/1/path = NodePath("..:visible")
tracks/1/interp = 1
tracks/1/loop_wrap = true
tracks/1/keys = {
"times": PackedFloat32Array(0, 0.05),
"transitions": PackedFloat32Array(1, 1),
"update": 1,
"values": [false, true]
}
tracks/2/type = "value"
tracks/2/imported = false
tracks/2/enabled = true
tracks/2/path = NodePath("../ColorRect:color")
tracks/2/interp = 1
tracks/2/loop_wrap = true
tracks/2/keys = {
"times": PackedFloat32Array(0.05, 0.7),
"transitions": PackedFloat32Array(1, 1),
"update": 0,
"values": [Color(0, 0, 0, 1), Color(0, 0, 0, 0)]
}

[sub_resource type="Animation" id="Animation_f7cou"]
resource_name = "stop"
length = 2.0
tracks/0/type = "method"
tracks/0/imported = false
tracks/0/enabled = true
tracks/0/path = NodePath("..")
tracks/0/interp = 1
tracks/0/loop_wrap = true
tracks/0/keys = {
"times": PackedFloat32Array(0.3),
"transitions": PackedFloat32Array(1),
"values": [{
"args": [],
"method": &"open_doors"
}]
}

[sub_resource type="AnimationLibrary" id="AnimationLibrary_717rv"]
_data = {
"RESET": SubResource("Animation_84itp"),
"end": SubResource("Animation_jv1u8"),
"start": SubResource("Animation_s7vw2"),
"stop": SubResource("Animation_f7cou")
}

[node name="room" type="Node2D"]
visible = false
script = ExtResource("1_v8lsv")

[node name="ColorRect" type="ColorRect" parent="."]
z_index = 9
z_as_relative = false
offset_right = 646.0
offset_bottom = 419.0
color = Color(0, 0, 0, 1)

[node name="animation" type="Node" parent="."]

[node name="def" type="AnimationPlayer" parent="animation"]
libraries = {
"": SubResource("AnimationLibrary_717rv")
}
