[gd_scene load_steps=5 format=3 uid="uid://dfgaggr6t74bo"]

[ext_resource type="Texture2D" uid="uid://b7caiefnl4dtd" path="res://res/img/cards/cards99.png" id="1_4mqk4"]
[ext_resource type="Texture2D" uid="uid://byvkeflvupjok" path="res://res/img/cards/cards01.png" id="2_eym1j"]

[sub_resource type="Animation" id="Animation_s5aa4"]
resource_name = "default"
length = 4.8
loop_mode = 1
tracks/0/type = "value"
tracks/0/imported = false
tracks/0/enabled = true
tracks/0/path = NodePath("background/music:frame")
tracks/0/interp = 1
tracks/0/loop_wrap = true
tracks/0/keys = {
"times": PackedFloat32Array(0, 0.2, 0.4, 0.6, 0.8, 1, 1.2, 1.4, 1.6, 1.8, 2, 2.2, 2.4, 2.6, 2.8, 3, 3.2, 3.4, 3.6, 3.8, 4, 4.2, 4.4, 4.6, 4.8),
"transitions": PackedFloat32Array(1, 1, 1, 1, 1, 1, 1, 1, 1, 1, 1, 1, 1, 1, 1, 1, 1, 1, 1, 1, 1, 1, 1, 1, 1),
"update": 1,
"values": [9, 10, 11, 10, 9, 10, 11, 10, 9, 10, 11, 10, 9, 10, 11, 10, 9, 10, 11, 10, 9, 10, 11, 10, 9]
}

[sub_resource type="AnimationLibrary" id="AnimationLibrary_84a7u"]
_data = {
"default": SubResource("Animation_s5aa4")
}

[node name="card_music" type="Node2D"]

[node name="background" type="ColorRect" parent="."]
clip_contents = true
offset_right = 48.0
offset_bottom = 64.0
color = Color(0.270588, 0.227451, 0.321569, 1)

[node name="background" type="Sprite2D" parent="background"]
modulate = Color(0.345098, 0.317647, 0.47451, 1)
position = Vector2(8, 32)
texture = ExtResource("1_4mqk4")
flip_h = true
region_enabled = true
region_rect = Rect2(97, 128, 95, 64)

[node name="ground" type="Sprite2D" parent="background"]
position = Vector2(24, 56)
texture = ExtResource("2_eym1j")
region_enabled = true
region_rect = Rect2(240, 45, 48, 19)

[node name="music" type="Sprite2D" parent="background"]
position = Vector2(24, 32)
texture = ExtResource("2_eym1j")
hframes = 8
vframes = 10
frame = 9

[node name="def" type="AnimationPlayer" parent="."]
libraries = {
"": SubResource("AnimationLibrary_84a7u")
}
